<?xml version="1.0" encoding="utf-8"?>
<!-- Generator: Adobe Illustrator 16.0.0, SVG Export Plug-In . SVG Version: 6.00 Build 0)  -->
<!DOCTYPE svg PUBLIC "-//W3C//DTD SVG 1.1//EN" "http://www.w3.org/Graphics/SVG/1.1/DTD/svg11.dtd">
<svg version="1.1" id="Layer_1" xmlns="http://www.w3.org/2000/svg" xmlns:xlink="http://www.w3.org/1999/xlink" x="0px" y="0px"
	 width="200px" height="50px" viewBox="0 0 200 50" enable-background="new 0 0 200 50" xml:space="preserve">
<g>
	<g>
		<linearGradient id="SVGID_1_" gradientUnits="userSpaceOnUse" x1="100.4321" y1="-0.6665" x2="100.4321" y2="51.667">
			<stop  offset="0" style="stop-color:#F47B20"/>
			<stop  offset="1" style="stop-color:#F16522"/>
		</linearGradient>
		<path fill="url(#SVGID_1_)" d="M109.548,20.773c-0.856-1.123-1.933-2.023-3.229-2.703c-1.299-0.678-2.853-1.019-4.648-1.019
			c-1.418,0-2.717,0.281-3.893,0.843c-1.184,0.562-2.156,1.461-2.922,2.699h-0.09V17.67H94.76v-0.174
			c0-0.245-0.198-0.445-0.444-0.445h-5.08c-0.246,0-0.445,0.2-0.445,0.445v0.174v0.104v31.18v0.139v0.142
			c0,0.246,0.199,0.445,0.445,0.445h5.387c0.246,0,0.445-0.199,0.445-0.445v-0.142h0.006V37.727h0.091
			c0.767,1.125,1.747,1.974,2.942,2.549c1.194,0.574,2.5,0.861,3.917,0.861c1.686,0,3.15-0.324,4.406-0.974
			c1.254-0.649,2.301-1.521,3.146-2.613c0.835-1.09,1.464-2.346,1.876-3.763c0.412-1.416,0.621-2.893,0.621-4.428
			c0-1.623-0.208-3.18-0.621-4.67C111.038,23.198,110.402,21.895,109.548,20.773z M106.188,31.886
			c-0.176,0.886-0.48,1.659-0.903,2.323c-0.431,0.664-0.992,1.202-1.687,1.615c-0.693,0.414-1.56,0.619-2.59,0.619
			c-1.005,0-1.855-0.205-2.564-0.619c-0.709-0.413-1.278-0.951-1.705-1.615c-0.432-0.664-0.736-1.438-0.928-2.323
			c-0.194-0.887-0.289-1.786-0.289-2.7c0-0.942,0.088-1.857,0.265-2.746c0.18-0.885,0.483-1.666,0.907-2.346
			c0.431-0.68,0.99-1.232,1.683-1.662c0.694-0.426,1.554-0.641,2.588-0.641c1.006,0,1.855,0.215,2.547,0.641
			c0.691,0.43,1.26,0.989,1.704,1.684c0.444,0.693,0.761,1.481,0.953,2.368c0.188,0.885,0.285,1.785,0.285,2.701
			C106.452,30.1,106.363,30.999,106.188,31.886z"/>
		<linearGradient id="SVGID_2_" gradientUnits="userSpaceOnUse" x1="134.2295" y1="-0.6665" x2="134.2295" y2="51.667">
			<stop  offset="0" style="stop-color:#F47B20"/>
			<stop  offset="1" style="stop-color:#F16522"/>
		</linearGradient>
		<path fill="url(#SVGID_2_)" d="M143.15,21.216c-0.928-1.271-2.116-2.28-3.562-3.032c-1.447-0.754-3.145-1.131-5.088-1.131
			c-1.742,0-3.331,0.312-4.759,0.93c-1.433,0.619-2.664,1.469-3.698,2.545c-1.037,1.08-1.831,2.355-2.393,3.832
			c-0.562,1.478-0.84,3.07-0.84,4.779c0,1.771,0.271,3.396,0.813,4.873c0.547,1.479,1.321,2.742,2.328,3.805
			c0.998,1.063,2.228,1.885,3.673,2.459s3.066,0.863,4.872,0.863c2.594,0,4.812-0.592,6.644-1.771
			c1.824-1.181,3.188-3.144,4.067-5.89h-5.528c-0.209,0.709-0.771,1.381-1.687,2.016c-0.917,0.638-2.009,0.949-3.277,0.949
			c-1.771,0-3.126-0.453-4.069-1.369c-0.945-0.913-1.461-2.393-1.555-4.428h16.518c0.117-1.771-0.027-3.471-0.439-5.092
			C144.753,23.932,144.082,22.484,143.15,21.216z M129.096,26.66c0.031-0.443,0.127-0.943,0.284-1.503
			c0.166-0.562,0.449-1.093,0.845-1.595c0.398-0.504,0.935-0.924,1.594-1.265c0.668-0.338,1.496-0.508,2.502-0.508
			c1.535,0,2.681,0.413,3.436,1.239c0.752,0.826,1.271,2.035,1.57,3.63L129.096,26.66L129.096,26.66z"/>
		<linearGradient id="SVGID_3_" gradientUnits="userSpaceOnUse" x1="188.5801" y1="-0.6665" x2="188.5801" y2="51.667">
			<stop  offset="0" style="stop-color:#F47B20"/>
			<stop  offset="1" style="stop-color:#F16522"/>
		</linearGradient>
		<path fill="url(#SVGID_3_)" d="M199.52,25.555c-0.418-1.623-1.084-3.07-2.016-4.339c-0.927-1.271-2.115-2.28-3.562-3.032
			c-1.443-0.754-3.144-1.131-5.092-1.131c-1.742,0-3.33,0.312-4.76,0.93c-1.433,0.619-2.663,1.469-3.697,2.545
			c-1.033,1.08-1.826,2.355-2.393,3.832c-0.561,1.478-0.839,3.07-0.839,4.779c0,1.771,0.271,3.396,0.817,4.873
			c0.547,1.475,1.317,2.742,2.326,3.805c1.002,1.063,2.227,1.885,3.676,2.459c1.44,0.574,3.066,0.863,4.867,0.863
			c2.598,0,4.811-0.592,6.641-1.771c1.832-1.181,3.188-3.144,4.072-5.89h-5.533c-0.207,0.709-0.771,1.381-1.682,2.016
			c-0.92,0.638-2.01,0.949-3.273,0.949c-1.771,0-3.131-0.453-4.075-1.369c-0.945-0.913-1.46-2.393-1.55-4.428h16.513
			C200.079,28.874,199.932,27.177,199.52,25.555z M183.448,26.66c0.028-0.443,0.122-0.943,0.29-1.503
			c0.158-0.562,0.438-1.093,0.839-1.595c0.397-0.504,0.932-0.924,1.595-1.265c0.664-0.338,1.496-0.508,2.502-0.508
			c1.534,0,2.678,0.413,3.43,1.239c0.754,0.826,1.276,2.035,1.572,3.63L183.448,26.66L183.448,26.66z"/>
		<linearGradient id="SVGID_4_" gradientUnits="userSpaceOnUse" x1="72.4424" y1="-0.6665" x2="72.4424" y2="51.667">
			<stop  offset="0" style="stop-color:#F47B20"/>
			<stop  offset="1" style="stop-color:#F16522"/>
		</linearGradient>
		<path fill="url(#SVGID_4_)" d="M85.479,8.368h-6.062c-0.246,0-0.444,0.198-0.444,0.444v0.14v0.14v19.516
			c0,2.363-0.471,4.1-1.416,5.205c-0.945,1.104-2.656,1.658-5.137,1.658c-1.415,0-2.544-0.199-3.384-0.598
			c-0.845-0.398-1.503-0.915-1.974-1.551c-0.473-0.633-0.781-1.363-0.931-2.19c-0.146-0.825-0.219-1.667-0.219-2.524V9.092v-0.14
			v-0.14c0-0.246-0.199-0.444-0.446-0.444h-6.062c-0.245,0-0.444,0.198-0.444,0.444v0.14v0.14v19.516
			c0,4.312,1.175,7.498,3.521,9.565c2.347,2.063,5.66,3.097,9.939,3.097c4.223,0,7.529-1.039,9.917-3.119
			c2.394-2.08,3.588-5.262,3.588-9.543V9.092v-0.14v-0.14C85.924,8.566,85.725,8.368,85.479,8.368z"/>
		<linearGradient id="SVGID_5_" gradientUnits="userSpaceOnUse" x1="117.3721" y1="-0.6665" x2="117.3721" y2="51.667">
			<stop  offset="0" style="stop-color:#F47B20"/>
			<stop  offset="1" style="stop-color:#F16522"/>
		</linearGradient>
		<path fill="url(#SVGID_5_)" d="M120.512,8.812c0-0.246-0.199-0.444-0.445-0.444h-5.387c-0.246,0-0.445,0.198-0.445,0.444v0.14
			h-0.008v31.61h0.008v0.14c0,0.246,0.199,0.444,0.445,0.444h5.387c0.246,0,0.445-0.198,0.445-0.444v-0.14h0.006V8.952h-0.006V8.812
			z"/>
		<linearGradient id="SVGID_6_" gradientUnits="userSpaceOnUse" x1="161.3438" y1="-0.6665" x2="161.3438" y2="51.667">
			<stop  offset="0" style="stop-color:#F47B20"/>
			<stop  offset="1" style="stop-color:#F16522"/>
		</linearGradient>
		<path fill="url(#SVGID_6_)" d="M176.514,16.779h-0.279l-0.002,0.002h-4.905v-7.67c0-0.008,0.004-0.014,0.004-0.021V8.812
			c0-0.246-0.199-0.444-0.445-0.444h-5.387c-0.246,0-0.444,0.198-0.444,0.444v0.14h-0.016v7.829h-3.579h-0.229h-4.371V8.952h-0.002
			v-0.14c0-0.246-0.199-0.444-0.445-0.444h-5.387c-0.246,0-0.445,0.198-0.445,0.444v0.14h-0.012v7.829h-4.109
			c-0.001,0-0.002-0.002-0.003-0.002h-0.278c-0.246,0-0.445,0.199-0.445,0.445v4.215c0,0.246,0.199,0.444,0.445,0.444h0.278
			c0.009,0,0.017-0.005,0.026-0.006h4.086v13.504c0,1.152,0.191,2.082,0.578,2.79c0.385,0.707,0.904,1.252,1.567,1.638
			c0.667,0.385,1.435,0.646,2.308,0.773c0.865,0.134,1.791,0.199,2.767,0.199c0.62,0,1.255-0.018,1.903-0.045
			c0.646-0.027,1.236-0.09,1.771-0.178v-4.869c-0.296,0.061-0.604,0.104-0.933,0.133c-0.323,0.031-0.661,0.046-1.021,0.046
			c-1.058,0-1.771-0.179-2.124-0.533s-0.526-1.062-0.526-2.125V21.878h4.371h0.23h3.579v13.504c0,1.152,0.188,2.082,0.573,2.79
			c0.387,0.707,0.908,1.252,1.57,1.637c0.668,0.385,1.435,0.646,2.303,0.774c0.873,0.134,1.793,0.199,2.771,0.199
			c0.618,0,1.248-0.017,1.901-0.044c0.647-0.028,1.237-0.09,1.771-0.178v-4.869c-0.297,0.06-0.604,0.104-0.932,0.132
			c-0.324,0.032-0.663,0.046-1.021,0.046c-1.06,0-1.769-0.178-2.125-0.533c-0.354-0.354-0.525-1.062-0.525-2.125V21.878h4.884
			c0.009,0.001,0.019,0.006,0.024,0.006h0.277c0.246,0,0.445-0.198,0.445-0.444v-4.215
			C176.958,16.979,176.759,16.779,176.514,16.779z"/>
	</g>
	<linearGradient id="SVGID_7_" gradientUnits="userSpaceOnUse" x1="24.5005" y1="-0.6665" x2="24.5005" y2="51.667">
		<stop  offset="0" style="stop-color:#F47B20"/>
		<stop  offset="1" style="stop-color:#F16522"/>
	</linearGradient>
	<path fill="url(#SVGID_7_)" d="M48.613,0.32H0.387C0.173,0.32,0,0.493,0,0.707v48.225c0,0.213,0.173,0.387,0.387,0.387h48.226
		c0.215,0,0.388-0.174,0.388-0.387V0.707C49,0.493,48.828,0.32,48.613,0.32z M34.395,38.148c-2.389,2.082-5.695,3.121-9.917,3.121
		c-4.28,0-7.593-1.033-9.939-3.1c-2.346-2.066-3.521-5.254-3.521-9.562V9.092v-0.14v-0.14c0-0.246,0.199-0.444,0.445-0.444h6.063
		c0.246,0,0.445,0.198,0.445,0.444v0.14v0.14v19.516c0,0.857,0.075,1.699,0.219,2.524c0.148,0.827,0.458,1.558,0.931,2.19
		c0.469,0.636,1.129,1.152,1.972,1.551c0.839,0.396,1.969,0.598,3.384,0.598c2.48,0,4.191-0.554,5.137-1.658
		c0.945-1.105,1.415-2.842,1.415-5.205v-10.83h-2.976v-0.006h-0.139c-0.246,0-0.445-0.199-0.445-0.445V11.94
		c0-0.246,0.2-0.445,0.445-0.445h0.139v-0.008h3.421h5.924h0.139c0.246,0,0.445,0.199,0.445,0.445v0.008v0.131v0.141v5.115v11.28
		C37.983,32.889,36.788,36.068,34.395,38.148z M40.646,41.27c-1.845,0-3.341-1.494-3.341-3.34s1.496-3.341,3.341-3.341
		s3.341,1.495,3.341,3.341C43.987,39.773,42.491,41.27,40.646,41.27z"/>
</g>
</svg>
