<?xml version="1.0" encoding="utf-8"?>
<!-- Generator: Adobe Illustrator 16.0.0, SVG Export Plug-In . SVG Version: 6.00 Build 0)  -->
<!DOCTYPE svg PUBLIC "-//W3C//DTD SVG 1.1//EN" "http://www.w3.org/Graphics/SVG/1.1/DTD/svg11.dtd">
<svg version="1.1" id="Layer_1" xmlns="http://www.w3.org/2000/svg" xmlns:xlink="http://www.w3.org/1999/xlink" x="0px" y="0px"
	 width="200px" height="200px" viewBox="0 0 200 200" enable-background="new 0 0 200 200" xml:space="preserve">
<linearGradient id="SVGID_1_" gradientUnits="userSpaceOnUse" x1="1.5654" y1="179.7256" x2="-19.5683" y2="179.7256" gradientTransform="matrix(1.3925 -1.930780e-05 0 1 70.6011 -96.788)">
	<stop  offset="0" style="stop-color:#FFFFFF"/>
	<stop  offset="1" style="stop-color:#DAEAFB"/>
</linearGradient>
<rect x="44.305" y="64.892" fill="url(#SVGID_1_)" width="26.695" height="36.091"/>
<path fill="#FFFFFF" d="M43.957,64.892c-9.712,0-17.615,8.088-17.615,18.047c0,9.941,7.903,18.044,17.615,18.044
	c9.724,0,17.615-8.104,17.615-18.044C61.572,72.98,53.681,64.892,43.957,64.892z"/>
<linearGradient id="SVGID_2_" gradientUnits="userSpaceOnUse" x1="41.8818" y1="179.7275" x2="20.7491" y2="179.7275" gradientTransform="matrix(1.3925 -1.930780e-05 0 1 70.6011 -96.788)">
	<stop  offset="0" style="stop-color:#FFFFFF"/>
	<stop  offset="1" style="stop-color:#DAEAFB"/>
</linearGradient>
<rect x="100.445" y="64.892" fill="url(#SVGID_2_)" width="26.694" height="36.091"/>
<path fill="#FFFFFF" d="M100.097,64.892c-9.712,0-17.615,8.088-17.615,18.047c0,9.941,7.903,18.044,17.615,18.044
	c9.724,0,17.615-8.104,17.615-18.044C117.712,72.98,109.82,64.892,100.097,64.892z"/>
<linearGradient id="SVGID_3_" gradientUnits="userSpaceOnUse" x1="82.0605" y1="179.7275" x2="60.9268" y2="179.7275" gradientTransform="matrix(1.3925 -1.930780e-05 0 1 70.6011 -96.788)">
	<stop  offset="0" style="stop-color:#FFFFFF"/>
	<stop  offset="1" style="stop-color:#DAEAFB"/>
</linearGradient>
<rect x="156.393" y="64.892" fill="url(#SVGID_3_)" width="26.694" height="36.091"/>
<path fill="#FFFFFF" d="M156.044,64.892c-9.712,0-17.615,8.088-17.615,18.047c0,9.941,7.903,18.044,17.615,18.044
	c9.724,0,17.615-8.104,17.615-18.044C173.659,72.98,165.768,64.892,156.044,64.892z"/>
<linearGradient id="SVGID_4_" gradientUnits="userSpaceOnUse" x1="18.9487" y1="131.333" x2="4.7921" y2="131.333" gradientTransform="matrix(-1 0 0 -1 31.5918 262.6641)">
	<stop  offset="0" style="stop-color:#FFFFFF"/>
	<stop  offset="1" style="stop-color:#DAEAFB"/>
</linearGradient>
<rect x="13.5" y="109.688" fill="url(#SVGID_4_)" width="12.842" height="43.288"/>
<linearGradient id="SVGID_5_" gradientUnits="userSpaceOnUse" x1="-36.3037" y1="131.333" x2="-50.4604" y2="131.333" gradientTransform="matrix(-1 0 0 -1 31.5918 262.6641)">
	<stop  offset="0" style="stop-color:#FFFFFF"/>
	<stop  offset="1" style="stop-color:#DAEAFB"/>
</linearGradient>
<rect x="68.752" y="109.688" fill="url(#SVGID_5_)" width="12.842" height="43.288"/>
<linearGradient id="SVGID_6_" gradientUnits="userSpaceOnUse" x1="-91.9712" y1="131.333" x2="-106.1278" y2="131.333" gradientTransform="matrix(-1 0 0 -1 31.5918 262.6641)">
	<stop  offset="0" style="stop-color:#FFFFFF"/>
	<stop  offset="1" style="stop-color:#DAEAFB"/>
</linearGradient>
<rect x="124.42" y="109.688" fill="url(#SVGID_6_)" width="12.842" height="43.288"/>
<g id="Layer_3">
</g>
<g>
	<g>
		<path fill="#C7DFF9" d="M63.307,152.976H24.61c-1.269,0-2.296-1.028-2.296-2.298v-38.692c0-1.269,1.027-2.298,2.296-2.298h38.697
			c1.267,0,2.293,1.029,2.293,2.298v38.692C65.6,151.947,64.573,152.976,63.307,152.976z M26.908,148.382h34.1v-34.098h-34.1
			V148.382z"/>
	</g>
</g>
<g>
	<g>
		<path fill="#C7DFF9" d="M175.388,152.976h-38.696c-1.265,0-2.294-1.028-2.294-2.298v-38.692c0-1.269,1.029-2.298,2.294-2.298
			h38.696c1.27,0,2.299,1.029,2.299,2.298v38.692C177.687,151.947,176.657,152.976,175.388,152.976z M138.994,148.382h34.096
			v-34.098h-34.096V148.382z"/>
	</g>
</g>
<g>
	<path fill="#C7DFF9" d="M156.044,64.892c-9.712,0-17.615,8.088-17.615,18.047c0,9.941,7.903,18.044,17.615,18.044
		c9.724,0,17.616-8.104,17.616-18.044C173.66,72.98,165.768,64.892,156.044,64.892z M156.044,96.387
		c-2.054,0-4.015-0.505-5.745-1.394c0.904-2.404,3.17-4.075,5.745-4.075c2.571,0,4.855,1.67,5.773,4.075
		C160.073,95.882,158.111,96.387,156.044,96.387z M156.044,86.324c-1.287,0-2.391-1.592-2.391-3.491
		c0-1.883,1.104-3.494,2.391-3.494c1.302,0,2.405,1.611,2.405,3.494C158.449,84.729,157.346,86.324,156.044,86.324z M165.542,92.13
		c-0.937-1.777-2.331-3.247-4.015-4.276c0.95-1.375,1.514-3.125,1.514-5.026c0-4.456-3.139-8.087-7.001-8.087
		c-3.845,0-6.982,3.629-6.982,8.087c0,1.901,0.567,3.646,1.516,5.026c-1.685,1.027-3.095,2.499-4.028,4.276
		c-2.19-2.42-3.524-5.637-3.524-9.191c0-7.416,5.853-13.45,13.02-13.45c7.186,0,13.023,6.034,13.023,13.45
		C169.063,86.493,167.729,89.707,165.542,92.13z"/>
</g>
<g>
	<path fill="#C7DFF9" d="M43.957,64.892c-9.712,0-17.615,8.088-17.615,18.047c0,9.941,7.903,18.044,17.615,18.044
		c9.724,0,17.615-8.104,17.615-18.044C61.572,72.98,53.681,64.892,43.957,64.892z M43.957,96.387c-2.054,0-4.015-0.505-5.746-1.394
		c0.904-2.404,3.17-4.075,5.746-4.075c2.57,0,4.855,1.67,5.773,4.075C47.986,95.882,46.024,96.387,43.957,96.387z M43.957,86.324
		c-1.288,0-2.391-1.592-2.391-3.491c0-1.883,1.103-3.494,2.391-3.494c1.301,0,2.404,1.611,2.404,3.494
		C46.361,84.729,45.258,86.324,43.957,86.324z M53.455,92.13c-0.937-1.777-2.331-3.247-4.015-4.276
		c0.951-1.375,1.514-3.125,1.514-5.026c0-4.456-3.138-8.087-7.001-8.087c-3.844,0-6.982,3.629-6.982,8.087
		c0,1.901,0.568,3.646,1.516,5.026c-1.685,1.027-3.094,2.499-4.029,4.276c-2.19-2.42-3.523-5.637-3.523-9.191
		c0-7.416,5.852-13.45,13.019-13.45c7.186,0,13.023,6.034,13.023,13.45C56.976,86.493,55.642,89.707,53.455,92.13z"/>
</g>
<g>
	<path fill="#C7DFF9" d="M53.882,138.472l-4.819-4.818c-0.718,1.116-1.667,2.066-2.784,2.784l4.819,4.819
		c0.77,0.769,2.017,0.769,2.784,0C54.651,140.488,54.651,139.241,53.882,138.472z"/>
	<path fill="#C7DFF9" d="M49.208,128.707c0-4.351-3.527-7.877-7.876-7.877c-4.35,0-7.877,3.526-7.877,7.877
		c0,4.35,3.527,7.876,7.877,7.876C45.681,136.583,49.208,133.057,49.208,128.707z M41.332,134.613c-3.258,0-5.908-2.65-5.908-5.906
		c0-3.258,2.65-5.908,5.908-5.908c3.257,0,5.907,2.65,5.907,5.908C47.239,131.963,44.589,134.613,41.332,134.613z"/>
	<path fill="#C7DFF9" d="M36.737,128.707h1.312c0-1.81,1.473-3.282,3.282-3.282v-1.312
		C38.799,124.112,36.737,126.173,36.737,128.707z"/>
</g>
<g>
	<circle fill="#B5D5F7" cx="96.746" cy="140.596" r="2.142"/>
	<circle fill="#B5D5F7" cx="106.088" cy="140.596" r="2.142"/>
	<path fill="#B5D5F7" d="M111.54,126.72c-2.734,0-13.212,0-13.212,0s-0.781,0.178-0.781,1.035c0,0.86,0.781,1.109,0.781,1.109
		h11.846l-0.666,2.252c-3.243,0-11.643,0-11.643,0s-0.729,0.166-0.729,0.964c0,0.802,0.729,1.034,0.729,1.034h11.029h0.024
		l-0.624,2.107H96.272l-0.798-6.357l-0.26-2.145c0,0-0.231-1.98-0.363-2.798c-0.131-0.823-2.185-1.851-6.601-3.932
		c-1.038-0.437-1.907,1.464,0,2.458l3.481,1.627c0,0,0.811,0.471,0.88,1.102c0.069,0.633,1.483,11.108,1.483,11.108
		s0.057,1.458,1.381,1.458s12.177,0,13.286,0c1.112,0,1.329-1.162,1.329-1.162l2.633-7.82
		C112.724,128.761,113.505,126.72,111.54,126.72z"/>
</g>
<g>
	<path fill="#C7DFF9" d="M163.6,123.773h-1.26v-1.26c0-0.695-0.563-1.26-1.26-1.26h-12.596c-0.697,0-1.26,0.564-1.26,1.26v15.115
		c0,0.695,0.562,1.26,1.26,1.26h1.26v1.26c0,0.695,0.562,1.26,1.259,1.26H163.6c0.696,0,1.26-0.564,1.26-1.26v-15.115
		C164.859,124.338,164.296,123.773,163.6,123.773z M148.484,137.629v-15.115h12.596v15.115H148.484z M163.6,140.148h-12.597v-1.26
		h10.077c0.696,0,1.26-0.564,1.26-1.26v-12.596h1.26V140.148z"/>
	<path fill="#C7DFF9" d="M159.19,125.033h-6.298c-0.347,0-0.629,0.283-0.629,0.63s0.282,0.63,0.629,0.63h6.298
		c0.348,0,0.631-0.283,0.631-0.63S159.538,125.033,159.19,125.033z"/>
	<path fill="#C7DFF9" d="M159.19,128.812h-8.817c-0.347,0-0.629,0.283-0.629,0.629c0,0.348,0.282,0.63,0.629,0.63h8.817
		c0.348,0,0.631-0.282,0.631-0.63C159.821,129.096,159.538,128.812,159.19,128.812z"/>
	<path fill="#C7DFF9" d="M159.19,131.331h-8.817c-0.347,0-0.629,0.282-0.629,0.63c0,0.347,0.282,0.629,0.629,0.629h8.817
		c0.348,0,0.631-0.282,0.631-0.629C159.821,131.613,159.538,131.331,159.19,131.331z"/>
	<path fill="#C7DFF9" d="M159.19,133.851h-8.817c-0.347,0-0.629,0.283-0.629,0.63s0.282,0.63,0.629,0.63h8.817
		c0.348,0,0.631-0.283,0.631-0.63S159.538,133.851,159.19,133.851z"/>
</g>
<linearGradient id="SVGID_7_" gradientUnits="userSpaceOnUse" x1="99.9995" y1="26" x2="99.9995" y2="180.2077">
	<stop  offset="0" style="stop-color:#4696EB"/>
	<stop  offset="1" style="stop-color:#A2CAF5"/>
</linearGradient>
<path fill="url(#SVGID_7_)" d="M147.322,25.437H52.678c-1.274,0-2.298,1.024-2.298,2.296v144.535c0,1.271,1.024,2.296,2.298,2.296
	h94.644c1.269,0,2.298-1.024,2.298-2.296V27.732C149.62,26.461,148.596,25.437,147.322,25.437z M145.023,169.969H54.977V56.117
	h90.047V169.969z M145.023,51.521H54.977v-21.49h90.047V51.521z"/>
<g>
	<g>
		<circle fill="#4696EB" cx="85.856" cy="40.664" r="4.262"/>
	</g>
	<g>
		<circle fill="#A2CAF5" cx="100.047" cy="40.664" r="4.262"/>
	</g>
	<g>
		<circle fill="#D1E5FA" cx="114.141" cy="40.664" r="4.262"/>
	</g>
</g>
<g>
	<path fill="#90C0F3" d="M100,64.892c-9.712,0-17.615,8.088-17.615,18.047c0,9.941,7.903,18.044,17.615,18.044
		c9.724,0,17.615-8.104,17.615-18.044C117.615,72.98,109.724,64.892,100,64.892z M100,96.387c-2.054,0-4.015-0.505-5.746-1.394
		c0.905-2.404,3.17-4.075,5.746-4.075c2.57,0,4.855,1.67,5.773,4.075C104.029,95.882,102.067,96.387,100,96.387z M100,86.324
		c-1.288,0-2.391-1.592-2.391-3.491c0-1.883,1.103-3.494,2.391-3.494c1.302,0,2.404,1.611,2.404,3.494
		C102.404,84.729,101.302,86.324,100,86.324z M109.498,92.13c-0.938-1.777-2.331-3.247-4.016-4.276
		c0.951-1.375,1.514-3.125,1.514-5.026c0-4.456-3.138-8.087-7-8.087c-3.844,0-6.983,3.629-6.983,8.087
		c0,1.901,0.568,3.646,1.517,5.026c-1.685,1.027-3.095,2.499-4.029,4.276c-2.189-2.42-3.523-5.637-3.523-9.191
		c0-7.416,5.852-13.45,13.019-13.45c7.185,0,13.023,6.034,13.023,13.45C113.019,86.493,111.686,89.707,109.498,92.13z"/>
</g>
<g>
	<path fill="#90C0F3" d="M119.344,152.976H80.654c-1.27,0-2.296-1.028-2.296-2.298v-38.692c0-1.269,1.026-2.298,2.296-2.298h38.694
		c1.269,0,2.293,1.029,2.293,2.298v38.692C121.642,151.947,120.613,152.976,119.344,152.976z M82.952,148.382h34.098v-34.098H82.952
		V148.382z"/>
</g>
<g>
	<g>
		<path fill="#4696EB" d="M178.886,19.67L168.029,8.813c-1.442-1.431-3.977-1.431-5.406,0l-9.83,9.83l-37.966,37.955
			c-0.339,0.351-0.612,0.754-0.808,1.201l-8.127,18.983c-0.611,1.442-0.295,3.103,0.809,4.205c0.732,0.731,1.715,1.125,2.709,1.125
			c0.502,0,1.016-0.099,1.507-0.306l18.983-8.137c0.447-0.187,0.852-0.46,1.189-0.809l37.965-37.954l9.83-9.83
			c0.71-0.721,1.114-1.693,1.114-2.698C180,21.363,179.596,20.391,178.886,19.67z M126.208,66.929l-9.524,4.086l4.074-9.524
			l33.87-33.858l5.438,5.438L126.208,66.929z M163.934,29.216l0.01,0.01c-0.098,0.088-0.196,0.176-0.295,0.273L163.934,29.216
			l-5.451-5.451l-0.283,0.284c0.098-0.098,0.175-0.197,0.262-0.295l0.021,0.011l6.838-6.837l5.449,5.45L163.934,29.216z"/>
		<path fill="#4696EB" d="M158.482,23.766l-0.283,0.284c0.098-0.098,0.175-0.197,0.262-0.295L158.482,23.766z"/>
		<path fill="#4696EB" d="M163.943,29.226c-0.098,0.088-0.196,0.176-0.295,0.273l0.285-0.283L163.943,29.226z"/>
	</g>
	<g>
		<path fill="#4696EB" d="M158.482,23.766l-0.283,0.284c0.098-0.098,0.175-0.197,0.262-0.295L158.482,23.766z"/>
		<path fill="#4696EB" d="M163.943,29.226c-0.098,0.088-0.196,0.176-0.295,0.273l0.285-0.283L163.943,29.226z"/>
	</g>
</g>
<polygon fill="#FFFFFF" points="126.208,66.929 116.684,71.015 120.758,61.491 154.628,27.632 160.066,33.071 "/>
<path fill="#FFFFFF" d="M163.934,29.216l0.01,0.01c-0.098,0.088-0.196,0.176-0.295,0.273L163.934,29.216l-5.451-5.451l-0.283,0.284
	c0.098-0.098,0.175-0.197,0.262-0.295l0.021,0.011l6.838-6.837l5.449,5.45L163.934,29.216z"/>
</svg>
