<?xml version="1.0" encoding="utf-8"?>
<!-- Generator: Adobe Illustrator 16.0.0, SVG Export Plug-In . SVG Version: 6.00 Build 0)  -->
<!DOCTYPE svg PUBLIC "-//W3C//DTD SVG 1.1//EN" "http://www.w3.org/Graphics/SVG/1.1/DTD/svg11.dtd">
<svg version="1.1" id="Layer_1" xmlns="http://www.w3.org/2000/svg" xmlns:xlink="http://www.w3.org/1999/xlink" x="0px" y="0px"
	 width="200px" height="200px" viewBox="0 0 200 200" enable-background="new 0 0 200 200" xml:space="preserve">
<g>
	<path fill="#FFFFFF" d="M128.516,0.253L126.542,0L76.578,49.96l28.354,28.353C93.472,92.484,83.053,102,74.263,107.271
		c-21.737,13.043-34.165,5.463-34.165,5.463l-29.332,29.332l7.844,7.841l2.987-2.989c-0.673,8.331,2.16,16.893,8.531,23.264
		c6.373,6.371,14.932,9.202,23.262,8.532l-2.988,2.988l7.842,7.841l29.332-29.33c0,0-7.582-12.428,5.46-34.166
		c5.274-8.792,14.791-19.208,28.958-30.669l27.727,27.72l49.961-49.958l-0.259-1.977C195.939,44.162,155.514,3.741,128.516,0.253z
		 M187.712,73.647c-4.548-12.15-13.166-25.058-24.358-36.25c-11.813-11.808-25.226-20.59-37.821-24.928l3.858-3.862
		c22.721,4.578,57.103,38.962,61.686,61.68L187.712,73.647z M152.16,109.199c-0.503-10.488-5.549-27.353-20.051-41.786
		c-14.295-14.362-30.979-19.45-41.485-20.034l29.729-29.735c12.397,3.536,26.477,12.395,38.416,24.336
		c11.453,11.452,20.021,24.693,23.854,36.754L152.16,109.199z M109.805,71.726c0.055,0.046,0.114,0.092,0.17,0.137
		c-0.006,0.009-0.011,0.014-0.016,0.021L109.805,71.726z M38.376,161.932c-6.973-6.97-6.973-18.272,0-25.246
		c2.88-2.881,6.504-4.547,10.25-5.047c5.326-0.711,10.906,0.961,14.997,5.047c4.091,4.092,5.761,9.674,5.053,15
		c-0.501,3.746-2.173,7.369-5.053,10.248C56.652,168.904,45.35,168.904,38.376,161.932z M115.096,91.281L83.329,123.04
		c-1.461,1.462-3.833,1.462-5.294,0c-1.462-1.46-1.462-3.828,0-5.293l31.76-31.761c0.518-0.517,1.15-0.844,1.818-0.993
		c1.21-0.274,2.535,0.047,3.479,0.993c0.941,0.944,1.267,2.268,0.986,3.479C115.932,90.131,115.607,90.761,115.096,91.281z"/>
	
		<rect x="41.736" y="186.289" transform="matrix(0.7071 0.7071 -0.7071 0.7071 149.6348 21.8928)" fill="#FFFFFF" width="13.31" height="10.553"/>
	
		<rect x="2.098" y="146.635" transform="matrix(0.707 0.7072 -0.7072 0.707 109.9981 38.318)" fill="#FFFFFF" width="13.312" height="10.558"/>
	<path fill="#FFFFFF" d="M142.447,40.23l-1.913-1.913c-1.267-1.265-3.317-1.265-4.583,0l-7.094,7.098
		c-1.267,1.265-1.267,3.315,0,4.583l1.647,1.647c-1.136,4.901,0.188,10.263,4.011,14.083c5.894,5.892,15.446,5.895,21.336,0
		c5.896-5.892,5.896-15.445,0-21.336C152.205,40.748,147.164,39.363,142.447,40.23z M149.834,59.715
		c-2.564,2.568-6.734,2.568-9.305,0c-2.565-2.57-2.565-6.735,0-9.304c2.574-2.571,6.738-2.571,9.305,0
		C152.404,52.979,152.404,57.145,149.834,59.715z"/>
</g>
</svg>
