<?xml version="1.0" encoding="utf-8"?>
<!-- Generator: Adobe Illustrator 16.0.0, SVG Export Plug-In . SVG Version: 6.00 Build 0)  -->
<!DOCTYPE svg PUBLIC "-//W3C//DTD SVG 1.1//EN" "http://www.w3.org/Graphics/SVG/1.1/DTD/svg11.dtd">
<svg version="1.1" id="Layer_1" xmlns="http://www.w3.org/2000/svg" xmlns:xlink="http://www.w3.org/1999/xlink" x="0px" y="0px"
	 width="30px" height="30px" viewBox="0 0 30 30" enable-background="new 0 0 30 30" xml:space="preserve">
<g>
	<rect x="7.5" y="11.25" fill="#A7A9AC" width="3.75" height="13.125"/>
	<path fill="#A7A9AC" d="M21.815,11.998c-1.396-0.784-3.456-0.85-4.94-0.172V11.25h-3.75v13.125h3.75V15.98l1.545-0.743
		c0.38-0.183,1.21-0.166,1.562,0.032c0.266,0.148,0.644,0.762,0.644,1.137v7.969h3.75v-7.969
		C24.375,14.683,23.299,12.828,21.815,11.998z"/>
	<circle fill="#A7A9AC" cx="9.375" cy="7.5" r="2.344"/>
</g>
</svg>
