<?xml version="1.0" encoding="utf-8"?>
<!-- Generator: Adobe Illustrator 16.0.0, SVG Export Plug-In . SVG Version: 6.00 Build 0)  -->
<!DOCTYPE svg PUBLIC "-//W3C//DTD SVG 1.1//EN" "http://www.w3.org/Graphics/SVG/1.1/DTD/svg11.dtd">
<svg version="1.1" id="Layer_1" xmlns="http://www.w3.org/2000/svg" xmlns:xlink="http://www.w3.org/1999/xlink" x="0px" y="0px"
	 width="200px" height="200px" viewBox="0 0 200 200" enable-background="new 0 0 200 200" xml:space="preserve">
<g id="Layer_3">
</g>
<g>
	<path fill="#4696EB" d="M100.002,31.362c5.62,0,10.179,5.473,10.179,12.223c0,6.751-4.559,12.223-10.179,12.223
		c-5.626,0-10.183-5.471-10.183-12.223C89.819,36.835,94.376,31.362,100.002,31.362z"/>
	<path fill="#B5D5F7" d="M100.002,162.634c-29.852,0-45.469-8.914-45.469-17.724c0-6.293,4.452-14.325,25.669-16.848
		c1.617-0.216,3.083,0.96,3.274,2.579c0.193,1.615-0.961,3.081-2.578,3.274c-7.646,0.908-20.473,3.548-20.473,10.994
		c0,4.824,15.418,11.828,39.576,11.828c24.153,0,39.569-7.004,39.569-11.828c0-5.022-8.646-9.335-22.037-10.998
		c-1.614-0.2-2.763-1.672-2.561-3.287c0.201-1.616,1.675-2.769,3.29-2.561c17.289,2.141,27.204,8.283,27.204,16.846
		C145.468,153.72,129.846,162.634,100.002,162.634z"/>
	<path fill="#C7DFF9" d="M99.09,175.352c-30.639,0-63.614-9.267-63.614-29.61c0-14.683,21.957-23.865,43.72-26.45
		c1.611-0.212,3.085,0.964,3.276,2.579c0.191,1.617-0.965,3.083-2.58,3.274c-25.287,3.006-38.521,12.638-38.521,20.597
		c0,11.784,19.826,23.715,57.722,23.715c29.264,0,59.533-8.87,59.533-23.715c0-8.543-14.187-18.945-41.298-22.305
		c-1.612-0.201-2.763-1.673-2.56-3.29c0.199-1.615,1.674-2.769,3.287-2.562c27.793,3.447,46.468,14.76,46.468,28.156
		C164.521,165.184,131.605,175.352,99.09,175.352z"/>
	<path fill="#DAEAFB" d="M100.563,188.638c-25.593,0-47.001-4.346-61.908-12.567c-13.626-7.513-21.133-17.806-21.133-28.985
		c0-18.083,25.853-33.304,64.333-37.876c1.621-0.186,3.083,0.962,3.274,2.579s-0.964,3.083-2.577,3.274
		c-38.823,4.613-59.134,19.603-59.134,32.022c0,17.172,24.14,35.653,77.146,35.653c52.229,0,76.022-18.481,76.022-35.653
		c0-12.275-19.911-27.168-57.964-31.884c-1.615-0.201-2.763-1.674-2.562-3.288c0.201-1.613,1.676-2.761,3.286-2.563
		c37.764,4.678,63.131,19.846,63.131,37.735C182.478,167.769,157.15,188.638,100.563,188.638z"/>
	<path fill="#A2CAF5" d="M100.004,152.685c-3.006,0-29.368-0.271-29.368-9.579c0-5.046,7.502-6.935,9.967-7.555
		c1.579-0.393,3.177,0.563,3.576,2.143c0.398,1.578-0.56,3.182-2.141,3.576c-2.67,0.67-4.203,1.371-4.988,1.853
		c2.38,1.49,10.27,3.665,22.951,3.665c12.684,0,20.573-2.179,22.949-3.669c-0.882-0.544-2.71-1.352-6.009-2.095
		c-1.591-0.356-2.589-1.933-2.235-3.521c0.363-1.589,1.938-2.586,3.524-2.231c7.494,1.684,11.135,4.247,11.135,7.831
		C129.371,152.413,103.009,152.685,100.004,152.685z"/>
	<path fill="#4696EB" d="M85.43,78.266c1.269,2.46,0.396,51.191,2.283,60.859c1.456,7.465,8.542,6.312,8.957-0.922
		c0.302-5.262,0.133-23.759,0.89-31.29c0.203-2.04,1.015-3.173,1.873-3.013c0.689,0.131,1.343,1.109,1.45,2.745
		c0.491,7.659-0.389,24.751,0.004,31.56c0.415,7.236,7.861,8.387,9.319,0.922c1.885-9.665,2.283-56.035,3.584-60.859
		c1.668-6.204,3.633,13.398,2.815,21.936c-0.584,6.109,7.797,8.22,8.211-0.221c0.479-9.722-0.672-22.599-2.979-29.447
		c-3.113-9.232-16.307-10.666-22.879-10.662c-6.272,0.006-19.421,2.336-22.059,12.742c-1.782,7.031-2.495,17.639-1.039,27.59
		c1.222,8.351,7.698,6.107,7.078,0.451C81.789,90.274,82.518,72.613,85.43,78.266z"/>
</g>
<path fill="#C7DFF9" d="M160.196,60.266l-9.397,2.875c-1.138,0.326-2.062,1.514-2.062,2.652v9.776c0,0,0,0.134,0,0.137
	c0,0-0.681-0.459-2.197-0.244c-2.228,0.316-4.034,2.025-4.034,3.82c0,1.792,1.807,2.891,4.034,2.575
	c2.229-0.315,3.862-1.972,3.862-3.766c0,0,0-7.669,0-8.465c0-0.794,0.955-1.135,0.955-1.135l8.311-2.605
	c0,0,0.919-0.308,0.919,0.542c0,0.851,0,6.793,0,6.793s0,0.001,0,0.006c0,0-0.846-0.488-2.363-0.304
	c-2.227,0.271-4.033,1.945-4.033,3.737c0,1.794,1.807,2.93,4.033,2.659c2.229-0.27,4.035-1.943,4.035-3.737V61.74
	C162.259,60.602,161.335,59.942,160.196,60.266z"/>
<g>
	<path fill="#A2CAF5" d="M167.229,42.179l-4.819-4.819c-0.718,1.116-1.667,2.066-2.784,2.784l4.819,4.819
		c0.77,0.769,2.017,0.769,2.784,0C167.999,44.195,167.999,42.948,167.229,42.179z"/>
	<path fill="#A2CAF5" d="M162.556,32.414c0-4.351-3.527-7.877-7.876-7.877c-4.35,0-7.877,3.526-7.877,7.877
		c0,4.35,3.527,7.876,7.877,7.876C159.028,40.29,162.556,36.763,162.556,32.414z M154.68,38.32c-3.258,0-5.908-2.65-5.908-5.907
		c0-3.258,2.65-5.908,5.908-5.908c3.257,0,5.907,2.65,5.907,5.908C160.587,35.67,157.937,38.32,154.68,38.32z"/>
	<path fill="#A2CAF5" d="M150.085,32.414h1.312c0-1.81,1.473-3.282,3.282-3.282v-1.312
		C152.146,27.819,150.085,29.879,150.085,32.414z"/>
</g>
<g id="_x33_50._Repeat">
	<g>
		<path fill="#C7DFF9" d="M63.854,49.072c-2.229-1.793-3.656-4.543-3.656-7.626c0-4.559,3.122-8.379,7.341-9.468v-2.521
			c-5.584,1.134-9.787,6.071-9.787,11.99c0,3.656,1.605,6.937,4.148,9.178C63.868,52.458,65.091,50.01,63.854,49.072z
			 M77.968,32.178c-1.254-1.132-3.088,0.703-1.886,1.613c2.25,1.793,3.69,4.555,3.69,7.655c0,4.56-3.121,8.379-7.341,9.467v2.522
			c5.585-1.134,9.788-6.071,9.788-11.989C82.22,37.739,80.571,34.421,77.968,32.178z M68.62,34.091l3.981-2.384
			c0.58-0.348,0.581-0.912,0.003-1.262l-4.02-2.432c-0.577-0.349-1.045-0.086-1.041,0.59l0.021,4.894
			C67.567,34.172,68.039,34.439,68.62,34.091z M71.386,48.812l-4.02,2.432c-0.578,0.35-0.576,0.915,0.002,1.262l3.982,2.384
			c0.58,0.347,1.053,0.081,1.056-0.595l0.021-4.894C72.43,48.726,71.962,48.462,71.386,48.812z"/>
	</g>
</g>
<g>
	<circle fill="#B5D5F7" cx="126.111" cy="60.183" r="2.141"/>
	<circle fill="#B5D5F7" cx="135.454" cy="60.183" r="2.141"/>
	<path fill="#B5D5F7" d="M140.906,46.308c-2.734,0-13.213,0-13.213,0s-0.781,0.177-0.781,1.035c0,0.86,0.781,1.11,0.781,1.11h11.847
		l-0.666,2.252c-3.243,0-11.644,0-11.644,0s-0.729,0.165-0.729,0.963c0,0.802,0.729,1.035,0.729,1.035h11.029h0.024l-0.624,2.107
		h-12.022l-0.798-6.358l-0.26-2.144c0,0-0.231-1.981-0.363-2.798c-0.131-0.823-2.185-1.851-6.601-3.932
		c-1.038-0.436-1.907,1.464,0,2.458l3.481,1.626c0,0,0.811,0.471,0.88,1.102c0.069,0.634,1.483,11.109,1.483,11.109
		s0.057,1.458,1.381,1.458s12.178,0,13.286,0c1.112,0,1.329-1.162,1.329-1.162l2.633-7.82
		C142.09,48.349,142.871,46.308,140.906,46.308z"/>
</g>
<g>
	<polygon fill="#C7DFF9" points="131.438,19.198 131.438,24.779 137.951,28.504 137.951,15.474 	"/>
	<path fill="#C7DFF9" d="M128.18,15.474h-14.657c-0.9,0-1.629,0.728-1.629,1.629v9.772c0,0.901,0.729,1.629,1.629,1.629h14.657
		c0.9,0,1.629-0.728,1.629-1.629v-1.628V23.85v-3.723v-1.396v-1.628C129.809,16.205,129.08,15.474,128.18,15.474z"/>
</g>
<g>
	<path fill="#B5D5F7" d="M96.317,6.026h-1.26v-1.26c0-0.695-0.563-1.259-1.26-1.259H81.202c-0.697,0-1.26,0.564-1.26,1.259v15.116
		c0,0.695,0.562,1.259,1.26,1.259h1.26v1.259c0,0.696,0.562,1.261,1.259,1.261h12.597c0.696,0,1.26-0.565,1.26-1.261V7.287
		C97.577,6.591,97.014,6.026,96.317,6.026z M81.202,19.882V4.767h12.596v15.116H81.202z M96.317,22.401H83.721v-1.259h10.077
		c0.696,0,1.26-0.564,1.26-1.259V7.287h1.26V22.401z"/>
	<path fill="#B5D5F7" d="M91.908,7.287H85.61c-0.347,0-0.629,0.283-0.629,0.629c0,0.346,0.282,0.629,0.629,0.629h6.298
		c0.348,0,0.631-0.283,0.631-0.629C92.539,7.569,92.256,7.287,91.908,7.287z"/>
	<path fill="#B5D5F7" d="M91.908,11.065h-8.817c-0.347,0-0.629,0.283-0.629,0.629c0,0.347,0.282,0.63,0.629,0.63h8.817
		c0.348,0,0.631-0.283,0.631-0.63C92.539,11.348,92.256,11.065,91.908,11.065z"/>
	<path fill="#B5D5F7" d="M91.908,13.584h-8.817c-0.347,0-0.629,0.283-0.629,0.63c0,0.347,0.282,0.629,0.629,0.629h8.817
		c0.348,0,0.631-0.283,0.631-0.629C92.539,13.867,92.256,13.584,91.908,13.584z"/>
	<path fill="#B5D5F7" d="M91.908,16.104h-8.817c-0.347,0-0.629,0.283-0.629,0.629c0,0.347,0.282,0.63,0.629,0.63h8.817
		c0.348,0,0.631-0.283,0.631-0.63C92.539,16.387,92.256,16.104,91.908,16.104z"/>
</g>
<path fill="#A2CAF5" d="M51.603,5.987c-3.491,0-6.322,2.831-6.322,6.323c0,6.323,6.322,13.911,6.322,13.911
	s6.324-7.588,6.324-13.911C57.927,8.818,55.096,5.987,51.603,5.987z M51.603,16.182c-2.139,0-3.872-1.733-3.872-3.873
	s1.733-3.873,3.872-3.873c2.14,0,3.873,1.733,3.873,3.873S53.742,16.182,51.603,16.182z M49.152,12.31c0,1.353,1.098,2.45,2.45,2.45
	c1.354,0,2.451-1.097,2.451-2.45c0-1.354-1.098-2.45-2.451-2.45C50.25,9.859,49.152,10.956,49.152,12.31z"/>
<path fill="#B5D5F7" d="M50.291,53.417H31.913c-0.727,0-1.313-0.587-1.313-1.313V38.977c0-0.725,0.587-1.312,1.313-1.312h3.938
	v-1.313c0-0.725,0.587-1.312,1.313-1.312h7.876c0.726,0,1.312,0.588,1.312,1.312v1.313h3.938c0.726,0,1.312,0.588,1.312,1.312
	v13.127C51.604,52.83,51.017,53.417,50.291,53.417z M48.979,40.29H45.04h-1.312v-2.625h-5.251v2.625h-1.312h-3.938v10.501h15.753
	V40.29z M35.194,41.602c0.362,0,0.656,0.294,0.656,0.657s-0.294,0.656-0.656,0.656s-0.656-0.293-0.656-0.656
	S34.832,41.602,35.194,41.602z M41.102,41.602c2.176,0,3.938,1.763,3.938,3.938c0,2.173-1.763,3.939-3.938,3.939
	c-2.175,0-3.938-1.766-3.938-3.939C37.164,43.365,38.927,41.602,41.102,41.602z M41.102,48.166c1.45,0,2.626-1.176,2.626-2.625
	c0-1.449-1.176-2.625-2.626-2.625c-1.449,0-2.625,1.177-2.625,2.625C38.477,46.99,39.652,48.166,41.102,48.166z"/>
<path fill="#C7DFF9" d="M60.214,62.479h-5.631c-1.327,0-3.181,0.768-4.12,1.707l-9.457,9.458c-0.938,0.938-0.938,2.474,0,3.413
	L48.05,84.1c0.939,0.938,2.475,0.938,3.413,0l9.457-9.457c0.938-0.938,1.707-2.792,1.707-4.119v-5.631
	C62.627,63.565,61.541,62.479,60.214,62.479z M56.995,70.523c-1.332,0-2.412-1.081-2.412-2.414c0-1.333,1.08-2.413,2.412-2.413
	c1.333,0,2.414,1.08,2.414,2.413C59.409,69.443,58.328,70.523,56.995,70.523z M37.455,75.918l8.606,8.606
	c-0.911,0.481-2.072,0.34-2.837-0.425l-7.045-7.044c-0.938-0.938-0.938-2.475,0-3.413l9.458-9.458
	c0.938-0.938,2.791-1.707,4.119-1.707L37.455,74.78C37.143,75.093,37.143,75.605,37.455,75.918z"/>
</svg>
