<?xml version="1.0" encoding="utf-8"?>
<!-- Generator: Adobe Illustrator 16.0.0, SVG Export Plug-In . SVG Version: 6.00 Build 0)  -->
<!DOCTYPE svg PUBLIC "-//W3C//DTD SVG 1.1//EN" "http://www.w3.org/Graphics/SVG/1.1/DTD/svg11.dtd">
<svg version="1.1" id="Layer_1" xmlns="http://www.w3.org/2000/svg" xmlns:xlink="http://www.w3.org/1999/xlink" x="0px" y="0px"
	 width="200px" height="200px" viewBox="-399.5 500.5 200 200" enable-background="new -399.5 500.5 200 200" xml:space="preserve">
<g id="Paper_Clip">
	<g>
		<path fill="#FFFFFF" d="M-210.741,595.517h-42.868v-49.133c0-25.299-20.586-45.884-45.889-45.884
			c-25.304,0-45.89,20.587-45.89,45.891v49.126h-42.869c-3.134,0-5.675,2.542-5.675,5.676v70.935c0,3.134,2.541,5.673,5.675,5.673
			h5.059v17.027c0,3.134,2.542,5.673,5.675,5.673h156.054c3.133,0,5.672-2.539,5.672-5.673V677.8h5.057
			c3.134,0,5.673-2.539,5.673-5.673v-70.935C-205.068,598.057-207.607,595.517-210.741,595.517z M-334.036,546.391
			c0-19.047,15.497-34.54,34.538-34.54c18.002,0,32.812,13.849,34.382,31.448l-24.322,24.327c-1.111,1.106-1.111,2.904,0,4.014
			c0.551,0.554,1.28,0.831,2.005,0.831c0.726,0,1.45-0.277,2.006-0.831l20.468-20.472v10.254l-24.479,24.482
			c-1.111,1.106-1.111,2.904,0,4.01c0.551,0.556,1.28,0.833,2.005,0.833c0.726,0,1.45-0.277,2.006-0.833l20.468-20.469v26.071
			h-69.076V546.391z M-382.579,606.867h37.191h91.778h37.191v59.583h-5.052h-156.054h-5.056V606.867z M-227.147,689.149h-144.703
			V677.8h144.703V689.149z"/>
		<path fill="#FFFFFF" d="M-363.838,628.104h24.123c3.134,0,5.677-2.544,5.677-5.678s-2.543-5.673-5.677-5.673h-24.123
			c-3.134,0-5.678,2.539-5.678,5.673S-366.972,628.104-363.838,628.104z"/>
		<circle fill="#FFFFFF" cx="-299.498" cy="541.542" r="12.064"/>
	</g>
</g>
</svg>
